stm32g0xx_hal_msp.c:66:6:HAL_MspInit	16	static
stm32g0xx_hal_msp.c:92:6:HAL_COMP_MspInit	48	static
stm32g0xx_hal_msp.c:131:6:HAL_COMP_MspDeInit	16	static
stm32g0xx_hal_msp.c:158:6:HAL_TIM_PWM_MspInit	24	static
stm32g0xx_hal_msp.c:180:6:HAL_TIM_Base_MspInit	24	static
stm32g0xx_hal_msp.c:207:6:HAL_TIM_MspPostInit	56	static
stm32g0xx_hal_msp.c:280:6:HAL_TIM_PWM_MspDeInit	16	static
stm32g0xx_hal_msp.c:302:6:HAL_TIM_Base_MspDeInit	16	static
stm32g0xx_hal_msp.c:335:6:HAL_UART_MspInit	56	static
stm32g0xx_hal_msp.c:374:6:HAL_UART_MspDeInit	16	static
